This is BibTeX, Version 0.99dThe top-level auxiliary file: glowny.aux
The style file: plain.bst
Database file #1: bibliografia.bib
Warning--to sort, need author or key in alky
Warning--to sort, need author or key in quitzilla
Warning--to sort, need author or key in quitnow
Warning--to sort, need author or key in pycharm
Warning--to sort, need author or key in python
Warning--to sort, need author or key in django
Warning--to sort, need author or key in docker
Warning--to sort, need author or key in dockercompose
Warning--to sort, need author or key in bootstrap
Warning--to sort, need author or key in html
Warning--to sort, need author or key in css
Warning--to sort, need author or key in js
Warning--to sort, need author or key in jquery
Warning--to sort, need author or key in postgres
Warning--to sort, need author or key in celery
Warning--to sort, need author or key in redis
Warning--empty author in alky
Warning--empty booktitle in alky
Warning--there's a month but no year in alky
Warning--empty author in bootstrap
Warning--empty booktitle in bootstrap
Warning--there's a month but no year in bootstrap
Warning--empty author in celery
Warning--empty booktitle in celery
Warning--there's a month but no year in celery
Warning--empty author in css
Warning--empty booktitle in css
Warning--there's a month but no year in css
Warning--empty author in django
Warning--empty booktitle in django
Warning--there's a month but no year in django
Warning--empty author in docker
Warning--empty booktitle in docker
Warning--there's a month but no year in docker
Warning--empty author in dockercompose
Warning--empty booktitle in dockercompose
Warning--there's a month but no year in dockercompose
Warning--empty author in html
Warning--empty booktitle in html
Warning--there's a month but no year in html
Warning--empty author in js
Warning--empty booktitle in js
Warning--there's a month but no year in js
Warning--empty author in jquery
Warning--empty booktitle in jquery
Warning--there's a month but no year in jquery
Warning--empty author in postgres
Warning--empty booktitle in postgres
Warning--there's a month but no year in postgres
Warning--empty author in pycharm
Warning--empty booktitle in pycharm
Warning--there's a month but no year in pycharm
Warning--empty author in python
Warning--empty booktitle in python
Warning--there's a month but no year in python
Warning--empty author in quitnow
Warning--empty booktitle in quitnow
Warning--there's a month but no year in quitnow
Warning--empty author in quitzilla
Warning--empty booktitle in quitzilla
Warning--there's a month but no year in quitzilla
Warning--empty author in redis
Warning--empty booktitle in redis
Warning--there's a month but no year in redis
Warning--empty title in django_book
Warning--empty title in docker_book
Warning--empty title in html_book
Warning--empty title in js_book
Warning--empty title in python_book
(There were 69 warnings)
